<?xml version="1.0" encoding="UTF-8" standalone="no"?>
<!-- Generator: Adobe Illustrator 19.0.0, SVG Export Plug-In . SVG Version: 6.00 Build 0)  -->

<svg
   xmlns:dc="http://purl.org/dc/elements/1.1/"
   xmlns:cc="http://creativecommons.org/ns#"
   xmlns:rdf="http://www.w3.org/1999/02/22-rdf-syntax-ns#"
   xmlns:svg="http://www.w3.org/2000/svg"
   xmlns="http://www.w3.org/2000/svg"
   xmlns:sodipodi="http://sodipodi.sourceforge.net/DTD/sodipodi-0.dtd"
   xmlns:inkscape="http://www.inkscape.org/namespaces/inkscape"
   version="1.1"
   id="Layer_1"
   x="0px"
   y="0px"
   viewBox="0 0 511.999 511.999"
   style="enable-background:new 0 0 511.999 511.999;"
   xml:space="preserve"
   sodipodi:docname="rocket.svg"
   inkscape:version="0.92.4 (5da689c313, 2019-01-14)"><metadata
   id="metadata67"><rdf:RDF><cc:Work
       rdf:about=""><dc:format>image/svg+xml</dc:format><dc:type
         rdf:resource="http://purl.org/dc/dcmitype/StillImage" /><dc:title></dc:title></cc:Work></rdf:RDF></metadata><defs
   id="defs65" /><sodipodi:namedview
   pagecolor="#ffffff"
   bordercolor="#666666"
   borderopacity="1"
   objecttolerance="10"
   gridtolerance="10"
   guidetolerance="10"
   inkscape:pageopacity="0"
   inkscape:pageshadow="2"
   inkscape:window-width="1920"
   inkscape:window-height="1017"
   id="namedview63"
   showgrid="false"
   inkscape:zoom="0.46093841"
   inkscape:cx="-135.59295"
   inkscape:cy="255.9995"
   inkscape:window-x="1592"
   inkscape:window-y="-8"
   inkscape:window-maximized="1"
   inkscape:current-layer="Layer_1" />
<g
   id="g6"
   transform="rotate(-45,255.99939,255.99986)">
	<g
   id="g4">
		<path
   d="m 69.453,371.091 c -4.802,-4.8 -12.588,-4.8 -17.391,0 l -25.255,25.255 c -4.802,4.802 -4.802,12.588 0,17.391 2.401,2.4 5.548,3.602 8.695,3.602 3.148,0 6.296,-1.201 8.696,-3.602 l 25.255,-25.255 c 4.802,-4.802 4.802,-12.588 0,-17.391 z"
   id="path2"
   inkscape:connector-curvature="0"
   style="fill:#ffff00" />
	</g>
</g>
<g
   id="g12"
   transform="rotate(-45,255.99939,255.99986)">
	<g
   id="g10">
		<path
   d="m 105.176,406.814 c -4.8,-4.8 -12.588,-4.8 -17.389,0 L 3.601,491.001 c -4.802,4.802 -4.802,12.588 0,17.391 2.4,2.4 5.548,3.602 8.695,3.602 3.147,0 6.294,-1.201 8.695,-3.602 l 84.185,-84.187 c 4.803,-4.803 4.802,-12.589 0,-17.391 z"
   id="path8"
   inkscape:connector-curvature="0"
   style="fill:#ffff00" />
	</g>
</g>
<g
   id="g18"
   transform="rotate(-45,255.99939,255.99986)">
	<g
   id="g16">
		<path
   d="m 140.901,442.54 c -4.803,-4.802 -12.588,-4.803 -17.389,-0.001 l -42.093,42.093 c -4.802,4.802 -4.803,12.588 0,17.391 2.401,2.4 5.548,3.602 8.695,3.602 3.147,0 6.294,-1.201 8.695,-3.602 l 42.093,-42.091 c 4.8,-4.803 4.802,-12.589 -10e-4,-17.392 z"
   id="path14"
   inkscape:connector-curvature="0"
   style="fill:#ffff00" />
	</g>
</g>
<g
   id="g24"
   transform="rotate(-45,255.99939,255.99986)">
	<g
   id="g22">
		<path
   d="m 372.797,139.201 c -14.32,-14.32 -33.361,-22.208 -53.614,-22.208 -20.254,0 -39.294,7.887 -53.616,22.208 -14.32,14.32 -22.208,33.362 -22.208,53.616 0,20.254 7.888,39.294 22.208,53.616 14.32,14.32 33.361,22.207 53.616,22.207 20.253,0 39.293,-7.887 53.614,-22.207 29.563,-29.566 29.563,-77.668 0,-107.232 z m -17.391,89.841 c -9.675,9.676 -22.54,15.005 -36.224,15.005 -13.685,0 -26.55,-5.329 -36.225,-15.005 -9.677,-9.676 -15.005,-22.54 -15.005,-36.225 0,-13.685 5.328,-26.549 15.005,-36.225 9.675,-9.676 22.54,-15.005 36.225,-15.005 13.683,0 26.549,5.329 36.224,15.005 19.974,19.974 19.974,52.476 0,72.45 z"
   id="path20"
   inkscape:connector-curvature="0"
   style="fill:#ffff00" />
	</g>
</g>
<g
   id="g30"
   transform="rotate(-45,255.99939,255.99986)">
	<g
   id="g28">
		<path
   d="M 503.429,17.28 C 502.293,13.03 498.974,9.712 494.724,8.575 452.674,-2.666 408.16,-2.851 365.997,8.039 c -6.572,1.698 -13.05,3.693 -19.443,5.911 -0.553,0.151 -1.098,0.341 -1.63,0.57 -35.108,12.459 -67.221,32.643 -93.832,59.178 -0.016,0.015 -0.031,0.03 -0.045,0.044 -0.069,0.069 -0.14,0.134 -0.209,0.203 -0.113,0.113 -0.21,0.235 -0.317,0.35 -0.103,0.112 -0.214,0.214 -0.315,0.331 l -37.664,43.835 c -59.25,-0.654 -116.831,22.757 -158.814,64.74 -13.651,13.651 -25.43,28.95 -35.009,45.472 -1.933,3.334 -2.191,7.381 -0.697,10.934 1.494,3.554 4.567,6.2 8.301,7.149 l 68.347,17.399 -13.373,36.318 c -6.604,17.937 -2.138,38.259 11.377,51.774 l 67.085,67.085 c 9.369,9.367 22.005,14.388 34.853,14.388 5.688,0 11.418,-0.985 16.923,-3.011 l 36.321,-13.373 17.402,68.35 c 0.949,3.734 3.597,6.808 7.149,8.302 1.528,0.642 3.15,0.96 4.766,0.96 2.138,0 4.269,-0.557 6.168,-1.659 16.519,-9.578 31.817,-21.356 45.472,-35.009 41.986,-41.986 65.386,-99.576 64.739,-158.823 l 43.83,-37.66 c 0.114,-0.098 0.214,-0.207 0.325,-0.309 0.118,-0.109 0.243,-0.209 0.358,-0.323 0.07,-0.07 0.135,-0.143 0.205,-0.211 0.013,-0.015 0.028,-0.028 0.042,-0.043 26.535,-26.61 46.719,-58.721 59.178,-93.828 0.226,-0.535 0.418,-1.082 0.569,-1.638 2.218,-6.39 4.213,-12.868 5.91,-19.439 10.887,-42.162 10.701,-86.675 -0.54,-128.726 z M 48.859,227.117 c 6.593,-9.43 14.044,-18.31 22.259,-26.526 32.16,-32.16 74.618,-52.036 119.449,-56.553 l -84.003,97.769 z m 55.513,81.854 11.445,-31.081 15.862,15.862 -23.975,38.369 c -4.878,-6.588 -6.213,-15.323 -3.332,-23.15 z m 21.033,41.231 24.122,-38.603 16.745,16.744 -31.363,31.362 z m 26.893,26.893 31.363,-31.362 16.744,16.744 -38.603,24.122 z m 50.735,30.537 c -7.828,2.88 -16.561,1.546 -23.149,-3.332 l 38.368,-23.975 15.862,15.862 z m 108.386,33.26 c -8.216,8.215 -17.097,15.664 -26.526,22.259 l -14.693,-57.71 97.772,-84.007 c -4.514,44.83 -24.394,87.295 -56.553,119.458 z M 420.93,243.508 257.035,384.328 127.677,254.97 227.157,139.189 c 0.097,-0.107 0.189,-0.219 0.283,-0.33 L 268.496,91.076 C 290.873,68.773 317.551,51.45 346.699,40.095 l 125.21,125.211 c -11.353,29.148 -28.676,55.826 -50.979,78.202 z M 480.367,138.984 373.023,31.638 c 35.488,-9.017 72.789,-9.37 108.392,-1.049 8.321,35.602 7.969,72.904 -1.048,108.395 z"
   id="path26"
   inkscape:connector-curvature="0"
   style="fill:#1a1a1a;fill-opacity:1" />
	</g>
</g>
<g
   id="g32">
</g>
<g
   id="g34">
</g>
<g
   id="g36">
</g>
<g
   id="g38">
</g>
<g
   id="g40">
</g>
<g
   id="g42">
</g>
<g
   id="g44">
</g>
<g
   id="g46">
</g>
<g
   id="g48">
</g>
<g
   id="g50">
</g>
<g
   id="g52">
</g>
<g
   id="g54">
</g>
<g
   id="g56">
</g>
<g
   id="g58">
</g>
<g
   id="g60">
</g>
</svg>