<?xml version="1.0" encoding="UTF-8" standalone="no"?>
<svg
   xmlns:dc="http://purl.org/dc/elements/1.1/"
   xmlns:cc="http://creativecommons.org/ns#"
   xmlns:rdf="http://www.w3.org/1999/02/22-rdf-syntax-ns#"
   xmlns:svg="http://www.w3.org/2000/svg"
   xmlns="http://www.w3.org/2000/svg"
   xmlns:sodipodi="http://sodipodi.sourceforge.net/DTD/sodipodi-0.dtd"
   xmlns:inkscape="http://www.inkscape.org/namespaces/inkscape"
   height="300px"
   width="300px"
   fill="#1A1A1A"
   version="1.1"
   x="0px"
   y="0px"
   viewBox="0 0 100 100"
   style="enable-background:new 0 0 100 100;"
   xml:space="preserve"
   id="svg3737"
   sodipodi:docname="image1.svg"
   inkscape:version="0.92.4 (5da689c313, 2019-01-14)"><metadata
     id="metadata3743"><rdf:RDF><cc:Work
         rdf:about=""><dc:format>image/svg+xml</dc:format><dc:type
           rdf:resource="http://purl.org/dc/dcmitype/StillImage" /><dc:title></dc:title></cc:Work></rdf:RDF></metadata><defs
     id="defs3741" /><sodipodi:namedview
     pagecolor="#ffffff"
     bordercolor="#666666"
     borderopacity="1"
     objecttolerance="10"
     gridtolerance="10"
     guidetolerance="10"
     inkscape:pageopacity="0"
     inkscape:pageshadow="2"
     inkscape:window-width="1920"
     inkscape:window-height="1017"
     id="namedview3739"
     showgrid="false"
     inkscape:zoom="2"
     inkscape:cx="69.632943"
     inkscape:cy="202.07771"
     inkscape:window-x="1592"
     inkscape:window-y="-8"
     inkscape:window-maximized="1"
     inkscape:current-layer="svg3737" /><path
     d="M69.3,59.3c0,4.1,3.4,7.5,7.5,7.5s7.5-3.4,7.5-7.5s-3.4-7.5-7.5-7.5S69.3,55.2,69.3,59.3z M72.3,59.3c0-2.5,2-4.5,4.5-4.5  s4.5,2,4.5,4.5s-2,4.5-4.5,4.5C74.4,63.8,72.3,61.8,72.3,59.3z"
     id="path3729" /><path
     d="M13.3,59.3c0,4.1,3.4,7.5,7.5,7.5s7.5-3.4,7.5-7.5s-3.4-7.5-7.5-7.5S13.3,55.2,13.3,59.3z M16.3,59.3c0-2.5,2-4.5,4.5-4.5  s4.5,2,4.5,4.5s-2,4.5-4.5,4.5C18.4,63.8,16.3,61.8,16.3,59.3z"
     id="path3731" /><path
     d="M30.6,61.2c0,0.3-0.1,0.7-0.2,1l37.3,1.1c-0.2-0.3-0.3-0.7-0.4-1L30.6,61.2z"
     id="path3733" /><path
     d="M8.6,58.8C8.7,59.5,9.3,60,10,60h1c0,0,0-0.1,0-0.2c0-0.5,0-0.9,0.1-1.3c0.1-0.5,0.2-1,0.3-1.5c1.2-4.2,5-7.3,9.6-7.3  c4.8,0,8.8,3.3,9.8,7.8c0.1,0.5,0.2,1,0.2,1.5c0,0.2,0,0.5,0,0.7c0,0.3,0,0.5,0,0.8l36.2,1C67.1,61,67,60.5,67,60c0-0.2,0-0.3,0-0.4  c0-0.3,0.1-0.7,0.1-1.1c0.5-5,4.8-8.9,9.9-8.9c5.4,0,9.7,4.1,10,9.4c0,0.2,0,0.4,0,0.6c0,0.3,0,0.6,0,0.9c-0.1,0.5-0.2,1-0.3,1.5  l2.8,0.1l0,0c0.6,0,1.2-0.4,1.4-1c0.9-2.7,1.2-5.6,1.1-6.2c-0.1-0.4-0.3-0.8-0.7-1c-0.5-0.4-0.8-0.7-0.9-0.8  c0.2-1.3-0.3-2.6-1.2-3.8c-2.8-3.3-9.8-5.3-20.9-5.8c-1.7-1.9-7.5-8.3-10.3-9.3c-2.5-0.8-31.5-1.5-38.4-0.6c-0.7,0-1.3,0.7-1.3,1.4  c0,0.2,0.1,0.5,0.2,0.7c-1.3,1.1-3.1,2.9-4.6,6.1c-0.5,0.1-1,0.5-1.5,1c-1.6,1.7-2.6,5.2-2.6,7.8C7.5,52,7.5,54.1,8.6,58.8z   M13.6,43.6c0.2,0,0.4,0.2,0.3,0.7c-0.3,0.9-0.9,3.6-1.2,4.4c-0.2,0.6-0.6,0.9-1,0.9c-0.1,0-0.2,0-0.3-0.1c-0.5-0.4-0.3-1.9,0-2.9  c0.2-1,0.7-2.2,1.3-2.7C13,43.8,13.3,43.7,13.6,43.6z M38.7,35.7l16.7,0.2l0.6,0.7l6.7,8.1l-23.6-1L38.8,36L38.7,35.7z M38.6,46  l3.9,0.2c0.6,0,1,0.4,1,1s-0.5,1-1,1l0,0L38.6,48c-0.6,0-1-0.4-1-1S38.1,46,38.6,46z M84.6,49.4c-0.5-0.8-0.8-1.5-0.8-2  c0-0.1,0-0.3,0.1-0.4c0.5-0.5,1.9,0.1,3.2,1.5c1.2,1.2,1.8,2.7,1.6,3.4c0,0.1,0,0.1-0.1,0.2c-0.2,0.3-0.8,0.2-1.4-0.2  S86,51,85.4,50.4C85.1,50.1,84.8,49.7,84.6,49.4z M18.7,42.8l3.9-6.7l0.4-0.6l12.8,0.2c0,0.1,0,0.2,0,0.3c0,1.8-0.1,5.8-0.1,7.6  L18.7,42.8z"
     id="path3735" /><path
     style="fill:#ffff00;stroke-width:0.33333334"
     d="M 31,60.499999 35.416666,60.666666 57.249999,44.375 51.916666,44.083333 30.958333,58.624999 Z"
     id="path3860"
     inkscape:connector-curvature="0" /><path
     style="fill:#ffff00;stroke-width:0.33333334"
     d="M 49.5625,61.020833 34.766083,47.49732 h -4.714045 l 14.083208,13.376103 z"
     id="path3864"
     inkscape:connector-curvature="0" /><path
     style="fill:#ffff00;stroke-width:0.33333334"
     d="m 24.807663,50.384673 5.656854,-7.129993 -5.833631,-0.265164 -1.532065,3.123054 1.2669,0.383016 -2.062395,3.27037 2.916815,0.08839 z"
     id="path3872"
     inkscape:connector-curvature="0" /><path
     style="fill:#ffff00;stroke-width:0.33333334"
     d="m 24.807663,50.384673 c 0,0 1.620453,0.383013 0,0 z"
     id="path3874"
     inkscape:connector-curvature="0" /><path
     style="fill:#ffff00;stroke-width:0.33333334"
     d="m 25.220141,49.854346 c -2.916815,-0.08839 -0.412478,0.530327 -0.412478,0.530327 z"
     id="path3876"
     inkscape:connector-curvature="0" /><path
     style="fill:#ffff00;stroke-width:0.33333334"
     d="m 22.303326,49.765956 c 0,0 -1.50657,-0.296543 0,0 z"
     id="path3878"
     inkscape:connector-curvature="0" /><path
     style="fill:#ffff00;stroke-width:0.33333334"
     d="m 22.395833,49.619793 -0.106771,0.174477 0.143229,0.0078 0.135417,0.01823 0.197917,0.03646 0.213541,0.03386 0.174479,0.04167 0.182292,0.03906 0.200521,0.04948 0.203125,0.05729 0.221354,0.05989 0.221354,0.07552 0.174479,0.05729 0.192709,0.07031 0.236979,0.09115 0.05208,-0.114584 0.460938,-0.549479 -0.200521,-0.07552 -0.653646,-0.05469 -0.638021,-0.04167 -0.536458,-0.04167 -0.385417,0.05469 -0.291666,0.02863 z"
     id="path3880"
     inkscape:connector-curvature="0" /><path
     style="fill:#ffff00;stroke-width:0.33333334"
     d="M 15.229167,51.458333 C 17.3125,42.75 24.630886,42.989516 24.630886,42.989516 l -1.27672,2.572984 c 0,0 -4.375,1.895833 -5.229166,4.541666 C 17.270833,52.749999 18.979166,47.5 18.979166,47.5 l -0.854166,2.604166 -1.020834,0.416667 -0.791666,0.375 -0.708333,0.458333 z"
     id="path3882"
     inkscape:connector-curvature="0" /><path
     style="fill:#ffff00;stroke-width:0.33333334"
     d="m 23.098821,46.11257 -1.222705,-0.39038 1.782498,-2.65165 0.972272,-0.08102 0.243068,0.2578 -0.20624,1.69411 -0.942809,0.95754 z"
     id="path3884"
     inkscape:connector-curvature="0" /><path
     style="fill:#ffff00;stroke-width:0.33333334"
     d="m 24.365721,46.495586 -3.2851,-0.04419 0.95754,-1.193243 1.664647,0.01473 z"
     id="path3886"
     inkscape:connector-curvature="0" /><path
     style="fill:#ffff00;stroke-width:0.33333334"
     d="m 18.974032,47.423663 0.01473,0.82496 -0.06629,0.456673 -0.493501,0.670277 -0.303971,0.728593 -0.233725,0.133193 -0.02946,-0.589256 z"
     id="path3888"
     inkscape:connector-curvature="0" /><path
     style="fill:#ffff00;stroke-width:0.33333334"
     d="m 15.229167,51.458333 -0.04687,0.15625 0.421875,-0.260417 0.0625,-0.20052 z"
     id="path3890"
     inkscape:connector-curvature="0" /></svg>