<?xml version="1.0" encoding="UTF-8" standalone="no"?>
<!-- Generator: Adobe Illustrator 19.0.0, SVG Export Plug-In . SVG Version: 6.00 Build 0)  -->

<svg
   xmlns:dc="http://purl.org/dc/elements/1.1/"
   xmlns:cc="http://creativecommons.org/ns#"
   xmlns:rdf="http://www.w3.org/1999/02/22-rdf-syntax-ns#"
   xmlns:svg="http://www.w3.org/2000/svg"
   xmlns="http://www.w3.org/2000/svg"
   xmlns:sodipodi="http://sodipodi.sourceforge.net/DTD/sodipodi-0.dtd"
   xmlns:inkscape="http://www.inkscape.org/namespaces/inkscape"
   version="1.1"
   id="Layer_1"
   x="0px"
   y="0px"
   viewBox="0 0 512 512"
   style="enable-background:new 0 0 512 512;"
   xml:space="preserve"
   sodipodi:docname="chat11.svg"
   inkscape:version="0.92.4 (5da689c313, 2019-01-14)"><metadata
   id="metadata962"><rdf:RDF><cc:Work
       rdf:about=""><dc:format>image/svg+xml</dc:format><dc:type
         rdf:resource="http://purl.org/dc/dcmitype/StillImage" /><dc:title></dc:title></cc:Work></rdf:RDF></metadata><defs
   id="defs960" /><sodipodi:namedview
   pagecolor="#ffffff"
   bordercolor="#666666"
   borderopacity="1"
   objecttolerance="10"
   gridtolerance="10"
   guidetolerance="10"
   inkscape:pageopacity="0"
   inkscape:pageshadow="2"
   inkscape:window-width="1920"
   inkscape:window-height="1017"
   id="namedview958"
   showgrid="false"
   inkscape:zoom="0.92187498"
   inkscape:cx="-104.08941"
   inkscape:cy="325.00739"
   inkscape:window-x="1592"
   inkscape:window-y="-8"
   inkscape:window-maximized="1"
   inkscape:current-layer="Layer_1" />
<g
   id="g925">
	<g
   id="g923">
		<path
   d="m 256,21.952 c -141.163,0 -256,95.424 -256,212.715 0,60.267 30.805,117.269 84.885,157.717 l -38.397136,84.2529 c -2.176,4.331 -2.758118,6.79934 0.868882,9.99934 3.421983,2.32086 6.235388,1.0828 9.398779,-1.04431 L 149.227,427.841 c 33.877,12.971 69.781,19.541 106.752,19.541 C 397.141,447.381 512,351.957 512,234.667 512,117.377 397.163,21.952 256,21.952 Z m 3.43064,417.32728 c -36.16,0 -78.07128,-8.56269 -110.94628,-21.85369 -1.87375,12.14798 3.08782,5.54249 0,0 L 49.953327,482.97742 93.36253,393.54636 c 2.368,-4.757 2.142427,-5.62717 -2.230574,-8.65717 -52.907,-36.629 -79.79136,-93.54216 -79.79136,-149.43516 0,-105.536 115.251404,-203.971211 244.638404,-203.971211 129.387,0 246.17247,97.647181 246.17247,203.183181 0,105.536 -113.33483,204.61328 -242.72083,204.61328 z"
   id="path921"
   style="fill:#cccccc"
   inkscape:connector-curvature="0"
   sodipodi:nodetypes="ssccccccssscccccssss" />
	</g>
</g>
<g
   id="g927">
</g>
<g
   id="g929">
</g>
<g
   id="g931">
</g>
<g
   id="g933">
</g>
<g
   id="g935">
</g>
<g
   id="g937">
</g>
<g
   id="g939">
</g>
<g
   id="g941">
</g>
<g
   id="g943">
</g>
<g
   id="g945">
</g>
<g
   id="g947">
</g>
<g
   id="g949">
</g>
<g
   id="g951">
</g>
<g
   id="g953">
</g>
<g
   id="g955">
</g>
<text
   xml:space="preserve"
   style="font-style:normal;font-weight:normal;font-size:33.09567642px;line-height:1.25;font-family:sans-serif;letter-spacing:0px;word-spacing:0px;fill:#ffffff;fill-opacity:1;stroke:none;stroke-width:0.82739192;"
   x="154.60559"
   y="210.73448"
   id="text5231"><tspan
     sodipodi:role="line"
     x="154.60559"
     y="210.73448"
     id="tspan5229"
     style="stroke-width:0.82739192;fill:#ffffff;"><tspan
       x="154.60559"
       y="210.73448"
       style="font-style:normal;font-variant:normal;font-weight:normal;font-stretch:normal;font-size:88.25513458px;font-family:Circe;-inkscape-font-specification:Circe;fill:#ffffff;stroke-width:0.82739192;"
       id="tspan5227">I am</tspan></tspan></text>



<text
   xml:space="preserve"
   style="font-style:normal;font-variant:normal;font-weight:normal;font-stretch:normal;font-size:111.25872803px;line-height:1.25;font-family:Circe;-inkscape-font-specification:Circe;letter-spacing:0px;word-spacing:0px;fill:#ffffff;fill-opacity:1;stroke:none;stroke-width:0.83444047;"
   x="95.486549"
   y="306.4079"
   id="text5237"><tspan
     sodipodi:role="line"
     x="95.486549"
     y="306.4079"
     id="tspan5235"
     style="stroke-width:0.83444047;fill:#ffffff;"><tspan
       x="95.486549"
       y="306.4079"
       style="font-style:normal;font-variant:normal;font-weight:normal;font-stretch:normal;font-size:90.11956787px;font-family:Circe;-inkscape-font-specification:Circe;fill:#ffffff;stroke-width:0.83444047;"
       id="tspan5233">DevOps</tspan></tspan></text>



</svg>