<?xml version="1.0" encoding="UTF-8" standalone="no"?>
<svg
   xmlns:dc="http://purl.org/dc/elements/1.1/"
   xmlns:cc="http://creativecommons.org/ns#"
   xmlns:rdf="http://www.w3.org/1999/02/22-rdf-syntax-ns#"
   xmlns:svg="http://www.w3.org/2000/svg"
   xmlns="http://www.w3.org/2000/svg"
   xmlns:sodipodi="http://sodipodi.sourceforge.net/DTD/sodipodi-0.dtd"
   xmlns:inkscape="http://www.inkscape.org/namespaces/inkscape"
   version="1.1"
   id="Layer_1"
   x="0px"
   y="0px"
   viewBox="0 0 512 512"
   style="enable-background:new 0 0 512 512;"
   xml:space="preserve"
   width="512px"
   height="512px"
   class=""
   sodipodi:docname="chat.svg"
   inkscape:version="0.92.4 (5da689c313, 2019-01-14)"><metadata
   id="metadata5097"><rdf:RDF><cc:Work
       rdf:about=""><dc:format>image/svg+xml</dc:format><dc:type
         rdf:resource="http://purl.org/dc/dcmitype/StillImage" /><dc:title></dc:title></cc:Work></rdf:RDF></metadata><defs
   id="defs5095" /><sodipodi:namedview
   pagecolor="#ffffff"
   bordercolor="#666666"
   borderopacity="1"
   objecttolerance="10"
   gridtolerance="10"
   guidetolerance="10"
   inkscape:pageopacity="0"
   inkscape:pageshadow="2"
   inkscape:window-width="1920"
   inkscape:window-height="1017"
   id="namedview5093"
   showgrid="false"
   inkscape:zoom="0.58419174"
   inkscape:cx="151.6834"
   inkscape:cy="20.010927"
   inkscape:window-x="1592"
   inkscape:window-y="-8"
   inkscape:window-maximized="1"
   inkscape:current-layer="Layer_1" /><g
   id="g5090"><g
     id="g5088">
	<g
   id="g5086">
		<path
   d="M437.333,0H74.667C33.493,0,0,33.493,0,74.667v256c0,41.173,33.493,74.667,74.667,74.667h32v96    c0,4.139,2.389,7.915,6.144,9.664c1.429,0.661,2.987,1.003,4.523,1.003c2.453,0,4.885-0.853,6.848-2.475l125.013-104.192h188.139    c41.173,0,74.667-33.493,74.667-74.667v-256C512,33.493,478.507,0,437.333,0z M490.667,330.667    c0,29.397-23.915,53.333-53.333,53.333h-192c-2.496,0-4.907,0.875-6.827,2.475L128,478.571v-83.904    c0-5.888-4.779-10.667-10.667-10.667H74.667c-29.419,0-53.333-23.936-53.333-53.333v-256c0-29.397,23.915-53.333,53.333-53.333    h362.667c29.419,0,53.333,23.936,53.333,53.333V330.667z"
   data-original="#000000"
   class="active-path"
   fill="#000000"
   id="path5084" />
	</g>
</g></g> <flowRoot
   xml:space="preserve"
   id="flowRoot5099"
   style="font-style:normal;font-variant:normal;font-weight:normal;font-stretch:normal;font-size:74.66666412px;line-height:1.25;font-family:Circe;-inkscape-font-specification:Circe;letter-spacing:0px;word-spacing:0px;fill:#000000;fill-opacity:1;stroke:none"
   transform="translate(78.676121,-4.8416072)"><flowRegion
     id="flowRegion5101"
     style="font-style:normal;font-variant:normal;font-weight:normal;font-stretch:normal;font-size:74.66666412px;font-family:Circe;-inkscape-font-specification:Circe"><rect
       id="rect5103"
       width="291.70685"
       height="148.87943"
       x="48.416077"
       y="62.940899"
       style="font-style:normal;font-variant:normal;font-weight:normal;font-stretch:normal;font-size:74.66666412px;font-family:Circe;-inkscape-font-specification:Circe" /></flowRegion><flowPara
     id="flowPara5105"
     style="font-size:120.00000763px">I am</flowPara></flowRoot><flowRoot
   xml:space="preserve"
   id="flowRoot5107"
   style="font-style:normal;font-weight:normal;font-size:120px;line-height:1.25;font-family:sans-serif;letter-spacing:0px;word-spacing:0px;fill:#000000;fill-opacity:1;stroke:none"
   transform="translate(4.8416076,7.2624113)"><flowRegion
     id="flowRegion5109"
     style="font-size:120px"><rect
       id="rect5111"
       width="426.06146"
       height="146.45862"
       x="35.101654"
       y="192.4539"
       style="font-size:120px" /></flowRegion><flowPara
     id="flowPara5113"
     style="font-style:normal;font-variant:normal;font-weight:normal;font-stretch:normal;font-size:120px;font-family:Circe;-inkscape-font-specification:Circe">DevOps</flowPara></flowRoot></svg>