<?xml version="1.0" encoding="UTF-8" standalone="no"?>
<svg
   xmlns:sketch="http://www.bohemiancoding.com/sketch/ns"
   xmlns:dc="http://purl.org/dc/elements/1.1/"
   xmlns:cc="http://creativecommons.org/ns#"
   xmlns:rdf="http://www.w3.org/1999/02/22-rdf-syntax-ns#"
   xmlns:svg="http://www.w3.org/2000/svg"
   xmlns="http://www.w3.org/2000/svg"
   xmlns:sodipodi="http://sodipodi.sourceforge.net/DTD/sodipodi-0.dtd"
   xmlns:inkscape="http://www.inkscape.org/namespaces/inkscape"
   width="34px"
   height="30px"
   viewBox="0 0 34 30"
   version="1.1"
   id="svg13"
   sodipodi:docname="poof.svg"
   inkscape:version="0.92.4 (5da689c313, 2019-01-14)">
  <metadata
     id="metadata17">
    <rdf:RDF>
      <cc:Work
         rdf:about="">
        <dc:format>image/svg+xml</dc:format>
        <dc:type
           rdf:resource="http://purl.org/dc/dcmitype/StillImage" />
        <dc:title>Oval 28 + Line + Line 2</dc:title>
      </cc:Work>
    </rdf:RDF>
  </metadata>
  <sodipodi:namedview
     pagecolor="#ffffff"
     bordercolor="#666666"
     borderopacity="1"
     objecttolerance="10"
     gridtolerance="10"
     guidetolerance="10"
     inkscape:pageopacity="0"
     inkscape:pageshadow="2"
     inkscape:window-width="1920"
     inkscape:window-height="1017"
     id="namedview15"
     showgrid="false"
     inkscape:zoom="22.250293"
     inkscape:cx="8.939992"
     inkscape:cy="13.660928"
     inkscape:window-x="1592"
     inkscape:window-y="-8"
     inkscape:window-maximized="1"
     inkscape:current-layer="Page-1" />
  <!-- Generator: Sketch Beta 3.1 (8620) - http://www.bohemiancoding.com/sketch -->
  <title
     id="title2">Oval 28 + Line + Line 2</title>
  <desc
     id="desc4">Created with Sketch Beta.</desc>
  <defs
     id="defs6" />
  <g
     id="Page-1"
     sketch:type="MSPage"
     stroke-width="1"
     stroke="none"
     fill-rule="evenodd"
     fill="none">
    <g
       id="Oval-28-+-Line-+-Line-2"
       sketch:type="MSLayerGroup"
       transform="translate(2.000000, 2.000000)"
       stroke-width="2.5"
       stroke="#BBBBBB">
      <path
         d="M3.69138265,11.2582144 C3.24703572,10.2629909 3,9.16034457 3,8 C3,3.581722 6.581722,0 11,0 C15.418278,0 19,3.581722 19,8 C23.418278,8 27,11.581722 27,16 C27,20.418278 23.418278,24 19,24 C17.3416998,24 15.8012458,23.4954408 14.5237817,22.6314665 C13.0738459,24.6701303 10.6922268,26 8,26 C3.581722,26 0,22.418278 0,18 C0,15.1681366 1.47139879,12.6799368 3.69138265,11.2582144 Z"
         id="Oval-28"
         sketch:type="MSShapeGroup"
         style="fill:#666666;stroke:#323232;stroke-opacity:1"
         fill="#F9F8F6" />
      <path
         d="M13.1927597,10.5850569 L30.9197158,4.92775811"
         id="Line"
         sketch:type="MSShapeGroup" />
      <path
         d="M18.0162094,17.6346195 L30.9837906,10.3653805"
         id="Line-2"
         sketch:type="MSShapeGroup" />
    </g>
  </g>
</svg>
